{
  "current_page": 1,
  "total_pages": 1000,
  "total_items": 49400,
  "photos": [
    {
      "focal_length": "45",
      "status": 1,
      "privacy": false,
      "liked": false,
      "image_url": [
        "https://drscdn.500px.org/photo/296328931/h%3D600_k%3D1_a%3D1/v2?client_application_id=8016&webp=true&sig=377b0552d440146b6e408fa8c91cec4bfacee3453245d6f68a1b126ccc9ee081",
        "https://drscdn.500px.org/photo/296328931/m%3D1080_k%3D1_a%3D1/v2?client_application_id=8016&webp=true&sig=10deed272a9f8e88fe966bf814e1f06f3aa7cb98cc71788f735f9aaf2d2fb1e3"
      ],
      "id": 296328931,
      "favorites_count": 0,
      "editors_choice": false,
      "watermark": false,
      "critiques_callout_dismissed": false,
      "width": 1800,
      "longitude": 139.6917064,
      "converted": false,
      "license_type": 0,
      "name": "Natasha",
      "aperture": "1.8",
      "crop_version": 0,
      "licensing_status": 0,
      "comments_count": 14,
      "location": null,
      "converted_bits": 0,
      "editored_by": {},
      "licensing_requested": false,
      "feature_date": "2019-02-27T13:21:16+00:00",
      "iso": "500",
      "votes_count": 1391,
      "license_requests_enabled": true,
      "for_sale_date": null,
      "category": 7,
      "shutter_speed": "1/320",
      "latitude": 35.6894875,
      "highest_rating_date": "2019-02-27T15:12:53-05:00",
      "user_id": 777395,
      "profile": true,
      "height": 1202,
      "camera": "PEN-F",
      "images": [
        {
          "format": "jpeg",
          "url": "https://drscdn.500px.org/photo/296328931/h%3D600_k%3D1_a%3D1/v2?client_application_id=8016&webp=true&sig=377b0552d440146b6e408fa8c91cec4bfacee3453245d6f68a1b126ccc9ee081",
          "size": 21,
          "https_url": "https://drscdn.500px.org/photo/296328931/h%3D600_k%3D1_a%3D1/v2?client_application_id=8016&webp=true&sig=377b0552d440146b6e408fa8c91cec4bfacee3453245d6f68a1b126ccc9ee081"
        },
        {
          "format": "jpeg",
          "url": "https://drscdn.500px.org/photo/296328931/m%3D1080_k%3D1_a%3D1/v2?client_application_id=8016&webp=true&sig=10deed272a9f8e88fe966bf814e1f06f3aa7cb98cc71788f735f9aaf2d2fb1e3",
          "size": 1080,
          "https_url": "https://drscdn.500px.org/photo/296328931/m%3D1080_k%3D1_a%3D1/v2?client_application_id=8016&webp=true&sig=10deed272a9f8e88fe966bf814e1f06f3aa7cb98cc71788f735f9aaf2d2fb1e3"
        }
      ],
      "licensing_suggested": false,
      "created_at": "2019-02-27T08:18:39-05:00",
      "disliked": false,
      "rating": 99.8,
      "user": {
        "cover_url": "https://drscdn.500px.org/user_cover/777395/q%3D65_m%3D2048/v2?webp=true&v=9&sig=66adcfeba5e6aec9e4dc73411a142430cac3eecc7aa46126caceb39fb085cfc4",
        "affection": 5196625,
        "firstname": "Sean",
        "fullname": "Sean Archer",
        "upgrade_status": 3,
        "usertype": 0,
        "id": 777395,
        "userpic_url": "https://drscdn.500px.org/user_avatar/777395/q%3D85_w%3D300_h%3D300/v2?webp=true&v=59&sig=191cb2b0c262728622ed985a893aab9b7d79de4bc78b423725e63044343957b3",
        "store_on": true,
        "country": "Russia",
        "avatars": {
          "large": {
            "https": "https://drscdn.500px.org/user_avatar/777395/q%3D85_w%3D100_h%3D100/v2?webp=true&v=59&sig=523becf2116764250dcb1d511ba881a7e211cf8d6bd1598ef5ff7b733fe5a6ea"
          },
          "tiny": {
            "https": "https://drscdn.500px.org/user_avatar/777395/q%3D85_w%3D30_h%3D30/v2?webp=true&v=59&sig=19931aa2ecab1d723f883f0dfd53b45cc1f3d102d7a00840fac64a240ae96e5a"
          },
          "default": {
            "https": "https://drscdn.500px.org/user_avatar/777395/q%3D85_w%3D300_h%3D300/v2?webp=true&v=59&sig=191cb2b0c262728622ed985a893aab9b7d79de4bc78b423725e63044343957b3"
          },
          "small": {
            "https": "https://drscdn.500px.org/user_avatar/777395/q%3D85_w%3D50_h%3D50/v2?webp=true&v=59&sig=e9e804fa347bdd0d042829368b961a457fe50400fb39d41954a2e83450722536"
          }
        },
        "lastname": "Archer",
        "city": "Yekaterinburg",
        "userpic_https_url": "https://drscdn.500px.org/user_avatar/777395/q%3D85_w%3D300_h%3D300/v2?webp=true&v=59&sig=191cb2b0c262728622ed985a893aab9b7d79de4bc78b423725e63044343957b3",
        "username": "SeanArcher"
      },
      "image_format": "jpeg",
      "request_to_buy_enabled": true,
      "highest_rating": 99.8,
      "hi_res_uploaded": 0,
      "positive_votes_count": 1391,
      "purchased": false,
      "comments": [],
      "is_free_photo": false,
      "voted": false,
      "collections_count": 73,
      "editors_choice_date": null,
      "for_critique": false,
      "url": "/photo/296328931/natasha-by-sean-archer",
      "feature": "popular",
      "taken_at": null,
      "sales_count": 0,
      "for_sale": false,
      "nsfw": false,
      "description": "Special discount code on Luminar and Aurora HDR: SEANARCHER. It gives a permanent $10 OFF :)",
      "times_viewed": 12666,
      "exclude_gads": false,
      "lens": "OLYMPUS M.45mm F1.2"
    }
  ],
  "filters": {
    "category": false,
    "exclude": [
      4,
      31
    ]
  },
  "feature": "popular"
}